<?xml version="1.0" standalone="no"?>
<!DOCTYPE svg PUBLIC "-//W3C//DTD SVG 20010904//EN"
 "http://www.w3.org/TR/2001/REC-SVG-20010904/DTD/svg10.dtd">
<svg version="1.0" xmlns="http://www.w3.org/2000/svg"
 width="512.000000pt" height="512.000000pt" viewBox="0 0 512.000000 512.000000"
 preserveAspectRatio="xMidYMid meet">
<metadata>
Created by potrace 1.14, written by Peter Selinger 2001-2017
</metadata>
<g transform="translate(0.000000,512.000000) scale(0.100000,-0.100000)"
fill="#000000" stroke="none">
<path d="M0 2560 l0 -2560 2560 0 2560 0 0 2560 0 2560 -2560 0 -2560 0 0
-2560z m1648 491 c53 -27 90 -65 112 -113 18 -40 20 -70 20 -475 l0 -433 -170
0 -170 0 0 140 0 140 -370 0 -370 0 0 -140 0 -140 -170 0 -170 0 0 416 c0 270
4 431 11 459 14 55 70 122 123 146 38 17 78 19 579 19 509 0 540 -1 575 -19z
m612 -55 c0 -50 5 -79 14 -88 7 -8 84 -56 170 -107 l156 -94 170 102 170 102
0 79 0 80 170 0 170 0 0 -87 c0 -165 -16 -186 -236 -317 -82 -49 -157 -95
-167 -102 -16 -11 0 -23 145 -109 247 -148 258 -162 258 -325 l0 -100 -170 0
-170 0 0 79 c0 95 12 82 -201 210 l-137 81 -153 -91 c-85 -50 -162 -98 -171
-107 -14 -12 -18 -31 -18 -94 l0 -78 -170 0 -170 0 0 98 c0 109 16 158 66 203
16 14 103 70 192 124 90 53 160 101 155 105 -4 4 -80 50 -168 103 -88 52 -172
108 -187 124 -44 46 -58 93 -58 193 l0 90 170 0 170 0 0 -74z m2498 -43 l-3
-118 -484 -3 c-337 -1 -488 -6 -498 -13 -8 -8 -13 -35 -13 -80 l0 -69 500 0
500 0 0 -120 0 -120 -500 0 -500 0 0 -69 c0 -45 5 -72 13 -80 10 -7 161 -12
498 -13 l484 -3 3 -117 3 -118 -586 0 c-557 0 -588 1 -623 19 -20 11 -51 34
-69 53 -62 64 -63 72 -63 450 0 383 2 390 71 454 72 67 35 63 682 64 l588 0
-3 -117z"/>
<path d="M707 2813 c-4 -3 -7 -60 -7 -125 l0 -118 370 0 371 0 -3 123 -3 122
-361 3 c-198 1 -363 -1 -367 -5z"/>
</g>
</svg>
