<svg width="50" height="50" viewBox="0 0 50 50" fill="none" xmlns="http://www.w3.org/2000/svg">
<circle cx="25" cy="25" r="25" fill="#1097BC"/>
<path d="M38.3657 17H34.1546L29.7252 28.6975H19.3066" stroke="#08202E" stroke-width="2" stroke-linecap="round"/>
<path d="M32.626 21.0552H16L17.4349 25.0791H30.8792" stroke="#08202E" stroke-width="2" stroke-linecap="round"/>
<circle cx="21.0535" cy="32.6902" r="1.71563" fill="#08202E"/>
<circle cx="27.5413" cy="32.6902" r="1.71563" fill="#08202E"/>
</svg>
