<svg width="158" height="54" viewBox="0 0 158 54" fill="none" xmlns="http://www.w3.org/2000/svg">
<g clip-path="url(#clip0_133_542)">
<path d="M130.952 0.29834C124.81 0.31598 118.863 2.46056 114.123 6.3674C109.383 10.2742 106.142 15.7022 104.952 21.7283C103.764 15.7013 100.524 10.2723 95.7833 6.36514C91.0429 2.45798 85.0952 0.314086 78.9521 0.29834C72.8096 0.31598 66.8628 2.46056 62.1228 6.3674C57.3828 10.2742 54.1423 15.7022 52.9521 21.7283C51.7638 15.7013 48.5237 10.2723 43.7833 6.36514C39.0429 2.45798 33.0952 0.314086 26.9521 0.29834C19.9166 0.30892 13.1721 3.10848 8.1972 8.0834C3.22228 13.0583 0.422689 19.8028 0.412109 26.8383C0.42005 33.8748 3.21878 40.6207 8.19427 45.5962C13.1698 50.5717 19.9157 53.3704 26.9521 53.3784C33.0933 53.3612 39.039 51.218 43.7787 47.3132C48.5185 43.4083 51.76 37.9827 52.9521 31.9583C54.1443 37.9827 57.3857 43.4083 62.1255 47.3132C66.8653 51.218 72.811 53.3612 78.9521 53.3784C85.0933 53.3612 91.039 51.218 95.7787 47.3132C100.519 43.4083 103.76 37.9827 104.952 31.9583C106.144 37.9827 109.386 43.4083 114.125 47.3132C118.865 51.218 124.811 53.3612 130.952 53.3784C137.989 53.3731 144.737 50.5752 149.713 45.5991C154.689 40.6231 157.487 33.8756 157.492 26.8383C157.484 19.8019 154.685 13.056 149.71 8.08051C144.734 3.10501 137.989 0.30628 130.952 0.29834ZM26.7921 52.3784C20.0209 52.3704 13.5294 49.677 8.74139 44.8891C3.95343 40.1011 1.26008 33.6095 1.25214 26.8383C1.26008 20.0672 3.95343 13.5756 8.74139 8.7876C13.5294 3.99964 20.0209 1.30628 26.7921 1.29834C33.5633 1.30628 40.0549 3.99964 44.8428 8.7876C49.6308 13.5756 52.3242 20.0672 52.3321 26.8383C52.3268 33.6104 49.6343 40.1035 44.8458 44.892C40.0572 49.6805 33.5641 52.3731 26.7921 52.3784ZM78.8721 52.3784C72.1009 52.3704 65.6094 49.677 60.8214 44.8891C56.0335 40.1011 53.34 33.6095 53.3321 26.8383C53.34 20.0672 56.0335 13.5756 60.8214 8.7876C65.6094 3.99964 72.1009 1.30628 78.8721 1.29834C85.6433 1.30628 92.1349 3.99964 96.9229 8.7876C101.711 13.5756 104.404 20.0672 104.412 26.8383C104.407 33.6104 101.714 40.1035 96.9258 44.892C92.1373 49.6805 85.6441 52.3731 78.8721 52.3784ZM130.952 52.3784C124.181 52.3704 117.689 49.677 112.901 44.8891C108.113 40.1011 105.42 33.6095 105.412 26.8383C105.42 20.0672 108.113 13.5756 112.901 8.7876C117.689 3.99964 124.181 1.30628 130.952 1.29834C137.723 1.30628 144.215 3.99964 149.003 8.7876C153.791 13.5756 156.484 20.0672 156.492 26.8383C156.484 33.6095 153.791 40.1011 149.003 44.8891C144.215 49.677 137.723 52.3704 130.952 52.3784Z" fill="white"/>
<path d="M30.2617 26.6383L33.4917 27.0483V22.0183H31.9417L30.2617 26.6383Z" fill="white"/>
<path d="M29.7318 22.0183H18.8418V25.1683L28.1618 26.3683L29.7318 22.0183Z" fill="white"/>
<path d="M26.6118 36.6784H33.4918V29.1384L29.5418 28.6284L26.6118 36.6784Z" fill="white"/>
<path d="M18.8418 27.2583V36.6783H24.4118L27.4318 28.3583L18.8418 27.2583Z" fill="white"/>
<path d="M22.0622 19.2883C23.1595 19.5854 24.2969 19.7069 25.4322 19.6483H26.4322H27.4322C28.5675 19.7062 29.7048 19.5847 30.8022 19.2883C31.0478 19.1676 31.2671 18.9994 31.4474 18.7934C31.6276 18.5874 31.7652 18.3478 31.8522 18.0883C31.9438 17.8299 31.9813 17.5554 31.9624 17.2818C31.9435 17.0083 31.8685 16.7416 31.7422 16.4983C31.4952 16.0052 31.0634 15.6297 30.5408 15.4536C30.0182 15.2776 29.4472 15.3152 28.9522 15.5583C27.9824 16.3362 27.1361 17.2566 26.4422 18.2883C25.754 17.2522 24.9069 16.3309 23.9322 15.5583C23.4387 15.3156 22.8691 15.2783 22.3481 15.4544C21.8272 15.6306 21.3971 16.0059 21.1522 16.4983C20.9042 16.9892 20.8607 17.5582 21.0312 18.0811C21.2018 18.6039 21.5725 19.038 22.0622 19.2883ZM29.3722 16.4583C29.5175 16.3838 29.6789 16.346 29.8422 16.3483C30.049 16.3408 30.2536 16.3935 30.4311 16.5C30.6086 16.6065 30.7514 16.7622 30.8422 16.9483C30.9063 17.0741 30.9446 17.2114 30.9549 17.3522C30.9652 17.493 30.9473 17.6345 30.9022 17.7683C30.8597 17.9044 30.7899 18.0306 30.6971 18.1389C30.6042 18.2472 30.4903 18.3354 30.3622 18.3983C29.3964 18.6029 28.4084 18.6836 27.4222 18.6383C27.976 17.8309 28.6314 17.0983 29.3722 16.4583ZM22.0122 16.9483C22.1416 16.6891 22.368 16.4915 22.6422 16.3983C22.7527 16.3663 22.8671 16.3495 22.9822 16.3483C23.1483 16.3492 23.3122 16.3868 23.4621 16.4583C24.2203 17.0954 24.8926 17.8282 25.4621 18.6383C24.4793 18.6832 23.4946 18.6025 22.5322 18.3983C22.4041 18.3354 22.2902 18.2472 22.1973 18.1389C22.1045 18.0306 22.0347 17.9044 21.9922 17.7683C21.9374 17.6379 21.9108 17.4975 21.9142 17.3561C21.9177 17.2148 21.9511 17.0758 22.0122 16.9483Z" fill="white"/>
<path d="M83.082 15.5583C82.572 19.4883 77.292 22.3484 77.292 22.3484C77.632 21.0584 76.342 19.1483 76.342 19.1483C75.8549 21.3508 74.648 23.3282 72.912 24.7683C70.112 26.9583 71.062 34.8183 71.062 34.8183C72.522 30.2083 77.412 27.6284 77.412 27.6284C73.412 30.4884 72.972 38.1284 72.972 38.1284C77.352 38.0184 82.572 33.3583 83.642 31.3383C84.5125 29.8593 85.5901 28.5123 86.842 27.3383L84.592 28.0083C85.832 23.7583 83.082 15.5583 83.082 15.5583Z" fill="white"/>
<path d="M133.942 30.7083C135.264 31.1908 136.694 31.2947 138.072 31.0083C137.018 30.6888 136.047 30.1404 135.23 29.4022C134.412 28.6641 133.767 27.7545 133.342 26.7383C134.792 27.8783 138.072 27.0183 138.072 27.0183C134.832 26.5683 132.822 23.1783 132.822 23.1783C134.227 23.6204 135.741 23.5675 137.112 23.0284C132.702 21.8384 130.952 15.3083 130.952 15.3083V15.4984C130.952 15.4984 129.202 22.0183 124.802 23.2083C126.173 23.7483 127.687 23.8012 129.092 23.3583C129.092 23.3583 127.092 26.7583 123.832 27.2083C123.832 27.2083 127.112 28.0583 128.572 26.9283C128.144 27.9444 127.497 28.8537 126.678 29.5917C125.859 30.3297 124.887 30.8782 123.832 31.1983C125.213 31.485 126.647 31.3811 127.972 30.8983C126.875 32.7097 125.125 34.0306 123.082 34.5883C123.082 34.5883 127.452 34.9983 129.682 33.5083V38.3583H130.952V38.1683H132.222V33.3183C134.462 34.8183 138.822 34.4084 138.822 34.4084C136.78 33.8496 135.031 32.5242 133.942 30.7083Z" fill="white"/>
</g>
<defs>
<clipPath id="clip0_133_542">
<rect width="157.24" height="53.08" fill="white" transform="translate(0.251953 0.29834)"/>
</clipPath>
</defs>
</svg>
