<svg width="28" height="34" viewBox="0 0 28 34" fill="none" xmlns="http://www.w3.org/2000/svg">
<path d="M14.4347 1.90234C16.8922 1.90234 18.8844 3.89454 18.8844 6.35205V13.8258C18.8844 16.2833 16.8922 18.2755 14.4347 18.2755C11.9772 18.2755 9.98499 16.2833 9.98499 13.8258V6.35205C9.98499 3.89454 11.9772 1.90234 14.4347 1.90234Z" stroke="#4F4F4F" stroke-width="2"/>
<path d="M26.9584 13.6133C26.9584 16.9334 25.6395 20.1176 23.2918 22.4653C20.9441 24.813 17.7599 26.1319 14.4398 26.1319C11.1196 26.1319 7.93545 24.813 5.58775 22.4653C3.24005 20.1176 1.92114 16.9334 1.92114 13.6133" stroke="#4F4F4F" stroke-width="2" stroke-miterlimit="10" stroke-linecap="round"/>
<path d="M14.4397 32.027V26.127" stroke="#4F4F4F" stroke-width="2" stroke-miterlimit="10" stroke-linecap="round"/>
</svg>
