<svg width="131" height="57" viewBox="0 0 131 57" fill="none" xmlns="http://www.w3.org/2000/svg">
<g clip-path="url(#clip0_231_1092)">
<path d="M3.66765 3.76067C6.1091 1.89132 9.39955 0.954816 13.5391 0.951172C17.4581 0.951172 20.6448 1.77654 23.1318 3.43818C25.6188 5.09982 26.9579 7.26433 27.1219 9.99729H19.3822C19.0376 8.9224 18.2808 8.02802 17.2778 7.51028C16.0817 6.88656 14.7452 6.5816 13.397 6.6248C11.5713 6.6248 10.1557 7.04568 9.1281 7.90383C8.63016 8.31738 8.23442 8.84037 7.9718 9.43198C7.70918 10.0236 7.58674 10.6679 7.61403 11.3146C7.57746 11.9766 7.70094 12.6376 7.974 13.2418C8.24707 13.846 8.66168 14.3755 9.18275 14.7854C10.4108 15.6538 11.8948 16.085 13.397 16.0098C14.7699 16.0586 16.1313 15.7437 17.3433 15.097C18.3183 14.5751 19.0502 13.6922 19.3822 12.6373H27.1219C26.9069 15.363 25.5714 17.5494 23.1154 19.1964C20.6594 20.8435 17.4673 21.667 13.5391 21.667C9.3704 21.667 6.06898 20.7269 3.63482 18.8466C2.46922 17.9748 1.53049 16.8353 0.897856 15.5243C0.265225 14.2134 -0.0427483 12.7695 -3.14917e-05 11.3146C-0.0504898 9.85192 0.2573 8.39909 0.896522 7.08254C1.53574 5.76599 2.48707 4.62562 3.66765 3.76067Z" fill="white"/>
<path d="M31.8883 3.80429C34.3042 1.90943 37.6093 0.960187 41.8035 0.956543C46.0341 0.956543 49.3465 1.90761 51.7625 3.80429C52.8949 4.70249 53.8097 5.84498 54.4385 7.14641C55.0674 8.44784 55.3941 9.87454 55.3941 11.3199C55.3941 12.7653 55.0674 14.192 54.4385 15.4935C53.8097 16.7949 52.8949 17.9374 51.7625 18.8356C49.3356 20.7159 46.0214 21.656 41.8199 21.656C37.6184 21.656 34.3189 20.7159 31.9211 18.8356C30.7887 17.9374 29.8739 16.7949 29.245 15.4935C28.6162 14.192 28.2896 12.7653 28.2896 11.3199C28.2896 9.87454 28.6162 8.44784 29.245 7.14641C29.8739 5.84498 30.7887 4.70249 31.9211 3.80429H31.8883ZM37.4909 14.7635C38.7514 15.6427 40.2687 16.0773 41.8035 15.9988C43.6838 15.9988 45.1487 15.5779 46.1762 14.7307C46.6738 14.3016 47.0723 13.7696 47.3441 13.1714C47.6159 12.5732 47.7545 11.9231 47.7504 11.2661C47.7462 10.6091 47.5993 9.96081 47.32 9.36611C47.0407 8.77141 46.6355 8.24447 46.1325 7.82174C44.8646 6.93663 43.3367 6.50174 41.7926 6.58646C39.9233 6.58646 38.4803 7.00733 37.4199 7.86548C36.9112 8.27829 36.5055 8.80387 36.2351 9.40062C35.9647 9.99737 35.837 10.6489 35.862 11.3035C35.8328 11.9691 35.9659 12.6317 36.2496 13.2345C36.5334 13.8372 36.9593 14.3619 37.4909 14.7635Z" fill="white"/>
<path d="M60.1526 3.80429C62.5686 1.90943 65.8736 0.960187 70.0678 0.956543C74.2985 0.956543 77.6108 1.90761 80.0267 3.80429C81.1583 4.70309 82.0722 5.84578 82.7004 7.14713C83.3287 8.44847 83.655 9.87488 83.655 11.3199C83.655 12.765 83.3287 14.1914 82.7004 15.4927C82.0722 16.7941 81.1583 17.9368 80.0267 18.8356C77.5962 20.7159 74.2803 21.656 70.0788 21.656C65.8773 21.656 62.5776 20.7159 60.1799 18.8356C59.0475 17.9374 58.1327 16.7949 57.5039 15.4935C56.875 14.192 56.5483 12.7653 56.5483 11.3199C56.5483 9.87454 56.875 8.44784 57.5039 7.14641C58.1327 5.84498 59.0475 4.70249 60.1799 3.80429H60.1526ZM65.7552 14.7635C67.0157 15.6427 68.533 16.0773 70.0678 15.9988C71.9554 15.9988 73.413 15.5761 74.4406 14.7307C74.9382 14.3016 75.3366 13.7696 75.6084 13.1714C75.8802 12.5732 76.0188 11.9231 76.0146 11.2661C76.0105 10.6091 75.8637 9.96081 75.5843 9.36611C75.305 8.77141 74.8998 8.24447 74.3968 7.82174C73.1288 6.93663 71.6009 6.50174 70.0569 6.58646C68.193 6.58646 66.7445 7.00733 65.6841 7.86548C65.1754 8.27829 64.7698 8.80387 64.4994 9.40062C64.229 9.99737 64.1013 10.6489 64.1264 11.3035C64.0981 11.9689 64.2315 12.6313 64.5152 13.2339C64.7988 13.8364 65.2243 14.3613 65.7552 14.7635Z" fill="white"/>
<path d="M92.8276 15.9114H102.912V21.3773H85.3721V1.23535H92.8276V15.9114Z" fill="white"/>
<path d="M3.62377 38.3327C6.03971 36.4342 9.34478 35.4831 13.539 35.4795C17.7332 35.4759 21.0528 36.4269 23.4979 38.3327C24.6302 39.2304 25.545 40.3724 26.1739 41.6733C26.8027 42.9743 27.1294 44.4006 27.1294 45.8456C27.1294 47.2906 26.8027 48.7169 26.1739 50.0179C25.545 51.3189 24.6302 52.4609 23.4979 53.3585C21.071 55.2388 17.7569 56.1808 13.5554 56.1844C9.35391 56.188 6.05249 55.2461 3.65113 53.3585C2.51969 52.4603 1.60572 51.3181 0.977484 50.0171C0.349253 48.7162 0.0229492 47.2903 0.0229492 45.8456C0.0229492 44.401 0.349253 42.975 0.977484 41.6741C1.60572 40.3732 2.51969 39.231 3.65113 38.3327H3.62377ZM9.22635 49.2646C10.4857 50.1461 12.0039 50.5809 13.539 50.4999C15.4192 50.4999 16.8841 50.079 17.9117 49.2372C18.4077 48.8071 18.8047 48.2748 19.0754 47.6767C19.3461 47.0787 19.4841 46.4291 19.4799 45.7727C19.4757 45.1162 19.3295 44.4685 19.0513 43.8739C18.773 43.2793 18.3694 42.7521 17.868 42.3283C16.6018 41.4389 15.073 41.0018 13.528 41.0875C11.6587 41.0875 10.2157 41.5139 9.15529 42.3666C8.64613 42.7802 8.24028 43.3067 7.96989 43.9044C7.69951 44.5021 7.57202 45.1546 7.59751 45.8101C7.56466 46.4785 7.6959 47.1447 7.97983 47.7507C8.26376 48.3567 8.69173 48.8839 9.22635 49.2864V49.2646Z" fill="white"/>
<path d="M31.921 38.289C34.3624 36.4196 37.6529 35.4831 41.7925 35.4795C45.7115 35.4795 48.8981 36.3103 51.3851 37.9665C53.8721 39.6227 55.2113 41.7926 55.3753 44.5256H47.6355C47.2893 43.4516 46.533 42.5578 45.5311 42.0386C44.3337 41.4193 42.9978 41.1164 41.6503 41.1586C39.8247 41.1586 38.409 41.5794 37.3814 42.4321C36.884 42.8473 36.4887 43.3714 36.2262 43.9638C35.9636 44.5561 35.8409 45.2009 35.8674 45.8483C35.8305 46.5109 35.9544 47.1726 36.2285 47.777C36.5026 48.3813 36.9188 48.9104 37.4415 49.3192C38.6679 50.1864 40.1504 50.6158 41.6503 50.5381C43.0235 50.5898 44.3857 50.2747 45.5967 49.6253C46.5732 49.1052 47.3056 48.2216 47.6355 47.1656H55.3753C55.2785 48.4984 54.865 49.7889 54.1691 50.9297C53.4732 52.0705 52.515 53.0288 51.3742 53.7247C48.9145 55.3645 45.7279 56.2008 41.7925 56.2008C37.6238 56.2008 34.3241 55.2589 31.8936 53.3749C30.7551 52.4765 29.8351 51.3318 29.2025 50.0268C28.5699 48.7218 28.2412 47.2904 28.2412 45.8401C28.2412 44.3899 28.5699 42.9585 29.2025 41.6534C29.8351 40.3484 30.7551 39.2038 31.8936 38.3054L31.921 38.289Z" fill="white"/>
<path d="M57.1079 55.9003V35.7583H77.638V41.2242H64.5634V43.4543H77.638V48.1769H64.5634V50.4234H77.638V55.8893L57.1079 55.9003Z" fill="white"/>
<path d="M97.0528 55.9003L96.2274 53.375H87.7989L86.9681 55.9003H78.9277L86.2302 35.7583H97.7742L105.077 55.9003H97.0528ZM89.4005 48.4885H94.6532L92.3083 41.3226H91.7617L89.4005 48.4885Z" fill="white"/>
<path d="M122.803 35.7583H130.264V55.9003H121.628L114.353 45.9413H113.986V55.9003H106.525V35.7583H115.304L122.442 46.2091H122.803V35.7583Z" fill="white"/>
</g>
<defs>
<clipPath id="clip0_231_1092">
<rect width="130.264" height="55.2277" fill="white" transform="translate(0 0.956543)"/>
</clipPath>
</defs>
</svg>
